<svg xmlns="http://www.w3.org/2000/svg" width="28" height="28" viewBox="0 0 28 28">
  <g id="Group_5781" data-name="Group 5781" transform="translate(-1070 -1456)">
    <g id="Group_5780" data-name="Group 5780" transform="translate(1074 1462.268)">
      <rect id="Rectangle_582" data-name="Rectangle 582" width="19" height="19" transform="translate(0 -1.267)" fill="none"/>
      <path id="Path_949" data-name="Path 949" d="M41.574,33.494a6.755,6.755,0,0,0,3.944,1.268V31.944A3.944,3.944,0,0,1,41.574,28H38.756v9.016a1.972,1.972,0,1,1-2.817-1.782V32.3a4.79,4.79,0,1,0,5.635,4.712Z" transform="translate(-29.741 -26.326)" fill="none" stroke="#1c1c1c" stroke-linecap="round" stroke-linejoin="round" stroke-width="1"/>
    </g>
    <rect id="Rectangle_1457" data-name="Rectangle 1457" width="28" height="28" transform="translate(1070 1456)" fill="none"/>
  </g>
</svg>
